quest{
  solarus_version = "2.0",
  write_dir = "",
  title = "Solarus Free Resource Pack",
  short_description = "",
  long_description = [[
Official pack of free graphics, musics, sounds and scripts for Solarus.
Art is licensed under Creative Commons licenses and scripts are GPL.
This is not a playable quest. Instead, open your own quest and you can import resources from this pack.]],
  author = "Christopho, Solarus Team",
  quest_version = "",
  release_date = "",
  website = "www.solarus-games.org",
  normal_quest_size = "320x240",
  min_quest_size = "320x240",
  max_quest_size = "320x240",
}

